{
  "dependencies": [
    {
      "type": "css",
      "url": "//cdn.datatables.net/1.10.19/css/jquery.dataTables.min.css"
    },
    {
      "type": "js",
      "url": "//cdn.datatables.net/1.10.19/js/jquery.dataTables.min.js"
    },
    "./lib.js",
    "./style.css"
  ]
}